<?xml version="1.0" encoding="UTF-8"?>
<OAI-PMH xmlns="http://www.openarchives.org/OAI/2.0/"
  xmlns:xsi="http://www.w3.org/2001/XMLSchema-instance"
  xsi:schemaLocation="http://www.openarchives.org/OAI/2.0/
         http://www.openarchives.org/OAI/2.0/OAI-PMH.xsd">
  <responseDate>2002-02-08T08:55:46Z</responseDate>
  <request verb="ListRecords" metadataPrefix="oai_dc">http://folio.org/oai</request>
  <ListRecords>
    <resumptionToken completeListSize="62" cursor="0">test_resumption_token</resumptionToken>
  </ListRecords>
</OAI-PMH>
